…
``` r
# Coleta da série temporal do Dólar no SGS/BCB
dados <- GetBCBData::gbcbd_get_series(
  id          = 3696, 
  first.date  = "2000-01-01",
  use.memoise = FALSE
  ) %>% 
  dplyr::select("date" = "ref.date", "value") %>% 
  dplyr::as_tibble()

# Resultado
dados
```

    ## # A tibble: 267 x 2
    ##    date       value
    ##    <date>     <dbl>
    ##  1 2000-01-01  1.80
    ##  2 2000-02-01  1.77
    ##  3 2000-03-01  1.75
    ##  4 2000-04-01  1.81
    ##  5 2000-05-01  1.83
    ##  6 2000-06-01  1.8 
    ##  7 2000-07-01  1.77
    ##  8 2000-08-01  1.82
    ##  9 2000-09-01  1.84
    ## 10 2000-10-01  1.91
    ## # ... with 257 more rows

Uma rápida visualização dos dados:

<img src="diff_revert_files/figure-gfm/unnamed-chunk-3-1.png" width="80%" style="display: block; margin: auto;" />

Para criar a série na primeira diferença usamos a função
`tsibble::difference`<sup>1</sup>, com seus argumentos padrão:

``` r
dados %<>%
  dplyr::mutate(value_diff = tsibble::difference(value))
dados
```

    ## # A tibble: 267 x 3
    ##    date       value value_diff
    ##    <date>     <dbl>      <dbl>
    ##  1 2000-01-01  1.80    NA     
    ##  2 2000-02-01  1.77    -0.0339
    ##  3 2000-03-01  1.75    -0.0212
    ##  4 2000-04-01  1.81     0.0594
    ##  5 2000-05-01  1.83     0.0199
    ##  6 2000-06-01  1.8     -0.0266
    ##  7 2000-07-01  1.77    -0.0252
    ##  8 2000-08-01  1.82     0.0486
    ##  9 2000-09-01  1.84     0.0203
    ## 10 2000-10-01  1.91     0.0653
    ## # ... with 257 more rows
…
``` r
dados %<>%
  dplyr::mutate(
    value_diff   = dplyr::if_else(is.na(value_diff), value, value_diff),
    value_revert = cumsum(value_diff)
    )
dados
```

    ## # A tibble: 267 x 4
    ##    date       value value_diff value_revert
    ##    <date>     <dbl>      <dbl>        <dbl>
    ##  1 2000-01-01  1.80     1.80           1.80
    ##  2 2000-02-01  1.77    -0.0339         1.77
    ##  3 2000-03-01  1.75    -0.0212         1.75
    ##  4 2000-04-01  1.81     0.0594         1.81
    ##  5 2000-05-01  1.83     0.0199         1.83
    ##  6 2000-06-01  1.8     -0.0266         1.8 
    ##  7 2000-07-01  1.77    -0.0252         1.77
    ##  8 2000-08-01  1.82     0.0486         1.82
    ##  9 2000-09-01  1.84     0.0203         1.84
    ## 10 2000-10-01  1.91     0.0653         1.91
    ## # ... with 257 more rows
…
