…
Além disso fazemos o **tratamento** necessário para obter um **objeto de
classe `tsibble`**, pois precisamos desse formato para a próxima etapa
de modelagem e previsão:

``` r
anfavea <- raw_anfavea %>%
  dplyr::select("date" = "ref.date", "variable" = "series.name", "value") %>%
  dplyr::mutate(date = tsibble::yearmonth(.data$date)) %>%
  tsibble::as_tsibble(key = "variable", index = "date")
anfavea
```

    ## # A tsibble: 1,392 x 3 [1M]
    ## # Key:       variable [4]
    ##        date variable  value
    ##       <mth> <chr>     <dbl>
    ##  1 1993 jan Caminhões  2208
    ##  2 1993 fev Caminhões  1904
    ##  3 1993 mar Caminhões  3674
    ##  4 1993 abr Caminhões  3479
    ##  5 1993 mai Caminhões  3765
    ##  6 1993 jun Caminhões  3874
    ##  7 1993 jul Caminhões  3764
    ##  8 1993 ago Caminhões  4529
    ##  9 1993 set Caminhões  4940
    ## 10 1993 out Caminhões  4800
    ## # ... with 1,382 more rows
…
5.  Por fim, use a função `fabletools::forecast()` para gerar previsões
    para toda a estrutura de agregação.

Especificando a hierarquia da série:

``` r
prod_veiculos <- anfavea %>%
  dplyr::filter(!variable == "Total") %>%
  fabletools::aggregate_key(variable, value = sum(value, na.rm = TRUE))
prod_veiculos
```

    ## # A tsibble: 1,392 x 3 [1M]
    ## # Key:       variable [4]
    ##        date variable      value
    ##       <mth> <chr*>        <dbl>
    ##  1 1993 jan <aggregated>  66168
    ##  2 1993 fev <aggregated>  73042
    ##  3 1993 mar <aggregated>  98691
    ##  4 1993 abr <aggregated>  88839
    ##  5 1993 mai <aggregated> 101055
    ##  6 1993 jun <aggregated> 102512
    ##  7 1993 jul <aggregated> 104493
    ##  8 1993 ago <aggregated> 115800
    ##  9 1993 set <aggregated> 106990
    ## 10 1993 out <aggregated> 109989
    ## # ... with 1,382 more rows
…
Gerar previsões na amostra de “teste”:

``` r
fcst <- fabletools::forecast(fit, h = "2 years")
fcst
```

    ## # A fable: 384 x 5 [1M]
    ## # Key:     variable, .model [16]
    ##    variable  .model       date            value .mean
    ##    <chr*>    <chr>       <mth>           <dist> <dbl>
    ##  1 Caminhões baseline 2018 jan N(7425, 1317976) 7425.
    ##  2 Caminhões baseline 2018 fev N(8338, 2106577) 8338.
    ##  3 Caminhões baseline 2018 mar N(9388, 3249573) 9388.
    ##  4 Caminhões baseline 2018 abr N(8693, 3297469) 8693.
    ##  5 Caminhões baseline 2018 mai N(9238, 4317685) 9238.
    ##  6 Caminhões baseline 2018 jun N(8972, 4648678) 8972.
    ##  7 Caminhões baseline 2018 jul N(8995, 5267331) 8995.
    ##  8 Caminhões baseline 2018 ago   N(9788, 7e+06) 9788.
    ##  9 Caminhões baseline 2018 set N(9060, 6601639) 9060.
    ## 10 Caminhões baseline 2018 out N(9741, 8387906) 9741.
    ## # ... with 374 more rows
…
