…
# Dados -------------------------------------------------------------------

# Tibble com dados da Produtividade total dos fatores - Brasil (2017 = 1)
tfp_br <- pwt10::pwt10.0 %>%
  dplyr::filter(isocode == "BRA") %>%
  dplyr::select(.data$year, .data$rtfpna) %>%
  tidyr::drop_na() %>%
  dplyr::as_tibble()

tfp_br
```

    ## # A tibble: 66 x 2
    ##     year rtfpna
    ##    <int>  <dbl>
    ##  1  1954  0.805
    ##  2  1955  0.819
    ##  3  1956  0.815
    ##  4  1957  0.851
    ##  5  1958  0.862
    ##  6  1959  0.876
    ##  7  1960  0.897
    ##  8  1961  0.976
    ##  9  1962  0.981
    ## 10  1963  1.01 
    ## # ... with 56 more rows
…
