…
# Exibindo as primeiras linhas
vagas
```

    ## # A tsibble: 216 x 2 [1M]
    ##        date  hits
    ##       <mth> <dbl>
    ##  1 2004 jan    18
    ##  2 2004 fev     6
    ##  3 2004 mar     0
    ##  4 2004 abr     6
    ##  5 2004 mai    14
    ##  6 2004 jun     5
    ##  7 2004 jul    14
    ##  8 2004 ago     9
    ##  9 2004 set     7
    ## 10 2004 out    15
    ## # ... with 206 more rows
``` r
# Extrair componentes: sazonalidade e tendência ---------------------------

# Aplica modelo decomposição da série (STL decomposition) e transforma
# resultado para um objeto tabular de classe "dable"
componentes <- vagas %>%
  fabletools::model(feasts::STL(hits, robust = TRUE)) %>%
  fabletools::components()


# Exibir resultado
componentes
```

    ## # A dable: 216 x 7 [1M]
    ## # Key:     .model [1]
    ## # :        hits = trend + season_year + remainder
    ##    .model                   date  hits trend season_year remainder season_adjust
    ##    <chr>                   <mth> <dbl> <dbl>       <dbl>     <dbl>         <dbl>
    ##  1 feasts::STL(hits, r~ 2004 jan    18  9.40       8.71     -0.115         9.29 
    ##  2 feasts::STL(hits, r~ 2004 fev     6  9.55       6.11     -9.66         -0.105
    ##  3 feasts::STL(hits, r~ 2004 mar     0  9.70       1.87    -11.6          -1.87 
    ##  4 feasts::STL(hits, r~ 2004 abr     6  9.85      -0.574    -3.28          6.57 
    ##  5 feasts::STL(hits, r~ 2004 mai    14  9.99       0.530     3.48         13.5  
    ##  6 feasts::STL(hits, r~ 2004 jun     5 10.1       -4.62     -0.506         9.62 
    ##  7 feasts::STL(hits, r~ 2004 jul    14 10.3        1.29      2.45         12.7  
    ##  8 feasts::STL(hits, r~ 2004 ago     9 10.4       -0.225    -1.17          9.22 
    ##  9 feasts::STL(hits, r~ 2004 set     7 10.5       -1.41     -2.12          8.41 
    ## 10 feasts::STL(hits, r~ 2004 out    15 10.7       -1.78      6.12         16.8  
    ## # ... with 206 more rows
…
