…
``` r
# Coleta e tratamento de dados
pib <- sidrar::get_sidra(api = "/t/1621/n1/all/v/all/p/all/c11255/90707/d/v584%202") %>% 
  dplyr::select("date" = `Trimestre (Código)`, "value" = `Valor`) %>% 
  dplyr::mutate(value = value, date = lubridate::yq(date)) %>% 
  dplyr::as_tibble()

# Inspeção dos dados
pib
```

    ## # A tibble: 102 x 2
    ##    date       value
    ##    <date>     <dbl>
    ##  1 1996-01-01  99.6
    ##  2 1996-04-01 100. 
    ##  3 1996-07-01 104. 
    ##  4 1996-10-01 103. 
    ##  5 1997-01-01 104. 
    ##  6 1997-04-01 105. 
    ##  7 1997-07-01 106. 
    ##  8 1997-10-01 107. 
    ##  9 1998-01-01 105. 
    ## 10 1998-04-01 107. 
    ## # ... with 92 more rows
…
