…
    ## [1] "SQLiteConnection"
    ## attr(,"package")
    ## [1] "RSQLite"

``` r
# Ler tabela com informações sobre os papers
df_articles <- dbmisc::dbGet(db, "article") %>% 
  dplyr::as_tibble()

df_articles
```

    ## # A tibble: 9,051 x 22
    ##    id             year  date journ title   vol issue artnum article_url has_data
    ##    <chr>         <int> <int> <chr> <chr> <int> <int>  <int> <chr>          <int>
    ##  1 aer_108_11_1   2018 17836 aer   Firm~   108    11      1 https://ww~        1
    ##  2 aer_108_11_2   2018 17836 aer   Near~   108    11      2 https://ww~        1
    ##  3 aer_108_11_3   2018 17836 aer   The ~   108    11      3 https://ww~        1
    ##  4 aer_108_11_4   2018 17836 aer   The ~   108    11      4 https://ww~        1
    ##  5 aer_108_11_5   2018 17836 aer   Stra~   108    11      5 https://ww~        1
    ##  6 aer_108_11_6   2018 17836 aer   Meas~   108    11      6 https://ww~        1
    ##  7 aer_108_11_7   2018 17836 aer   Mism~   108    11      7 https://ww~        1
    ##  8 aer_108_11_8   2018 17836 aer   Temp~   108    11      8 https://ww~        1
    ##  9 aer_108_11_9   2018 17836 aer   The ~   108    11      9 https://ww~        1
    ## 10 aer_108_11_10  2018 17836 aer   BKK ~   108    11     10 https://ww~        1
    ## # ... with 9,041 more rows, and 12 more variables: data_url <chr>, size <dbl>,
    ## #   unit <chr>, files_txt <chr>, downloaded_file <chr>, num_authors <int>,
    ## #   file_info_stored <int>, file_info_summarized <dbl>, abstract <chr>,
    ## #   readme_file <chr>, repo <chr>, repo_info <chr>
…
